{
    "petrol": [
        {
            "_id": "5e392b3627fa1c4e1df1f377",
            "date": "2020-02-04T22:00:00.000Z",
            "location": "Reef",
            "octane": "95",
            "type": "LRP",
            "__v": 0,
            "value": 1571
        },
        {
            "_id": "5e392b3627fa1c4e1df1f379",
            "date": "2020-02-04T22:00:00.000Z",
            "location": "Reef",
            "octane": "93",
            "type": "Unleaded",
            "__v": 0,
            "value": 1571
        },
        {
            "_id": "5e392b3627fa1c4e1df1f37b",
            "date": "2020-02-04T22:00:00.000Z",
            "location": "Reef",
            "octane": "95",
            "type": "Unleaded",
            "__v": 0,
            "value": 1603
        },
        {
            "_id": "5e392b3627fa1c4e1df1f37d",
            "date": "2020-02-04T22:00:00.000Z",
            "location": "Coast",
            "octane": "93",
            "type": "Unleaded",
            "__v": 0,
            "value": 1526
        },
        {
            "_id": "5e392b3627fa1c4e1df1f37f",
            "date": "2020-02-04T22:00:00.000Z",
            "location": "Coast",
            "octane": "95",
            "type": "Unleaded",
            "__v": 0,
            "value": 1539
        },
        {
            "_id": "5e392b3627fa1c4e1df1f381",
            "date": "2020-02-04T22:00:00.000Z",
            "location": "Coast",
            "octane": "95",
            "type": "LRP",
            "__v": 0,
            "value": 1526
        },
        {
            "_id": "5e5e21c027fa1c4e1d82ebcd",
            "date": "2020-03-03T22:00:00.000Z",
            "location": "Reef",
            "octane": "95",
            "type": "LRP",
            "__v": 0,
            "value": 1552
        },
        {
            "_id": "5e5e21c027fa1c4e1d82ebcf",
            "date": "2020-03-03T22:00:00.000Z",
            "location": "Reef",
            "octane": "93",
            "type": "Unleaded",
            "__v": 0,
            "value": 1552
        },
        {
            "_id": "5e5e21c027fa1c4e1d82ebd2",
            "date": "2020-03-03T22:00:00.000Z",
            "location": "Reef",
            "octane": "95",
            "type": "Unleaded",
            "__v": 0,
            "value": 1584
        },
        {
            "_id": "5e5e21f627fa1c4e1d831a05",
            "date": "2020-03-03T22:00:00.000Z",
            "location": "Coast",
            "octane": "93",
            "type": "Unleaded",
            "__v": 0,
            "value": 1507
        },
        {
            "_id": "5e5e21f627fa1c4e1d831a07",
            "date": "2020-03-03T22:00:00.000Z",
            "location": "Coast",
            "octane": "95",
            "type": "Unleaded",
            "__v": 0,
            "value": 1520
        },
        {
            "_id": "5e5e21f627fa1c4e1d831a09",
            "date": "2020-03-03T22:00:00.000Z",
            "location": "Coast",
            "octane": "95",
            "type": "LRP",
            "__v": 0,
            "value": 1507
        },
        {
            "_id": "5e82e79b27fa1c4e1d74b34d",
            "date": "2020-03-31T22:00:00.000Z",
            "location": "Reef",
            "octane": "95",
            "type": "LRP",
            "__v": 0,
            "value": 1376
        },
        {
            "_id": "5e82e79b27fa1c4e1d74b34f",
            "date": "2020-03-31T22:00:00.000Z",
            "location": "Reef",
            "octane": "93",
            "type": "Unleaded",
            "__v": 0,
            "value": 1376
        },
        {
            "_id": "5e82e79b27fa1c4e1d74b351",
            "date": "2020-03-31T22:00:00.000Z",
            "location": "Reef",
            "octane": "95",
            "type": "Unleaded",
            "__v": 0,
            "value": 1396
        },
        {
            "_id": "5e82e85027fa1c4e1d74f59e",
            "date": "2020-03-31T22:00:00.000Z",
            "location": "Coast",
            "octane": "93",
            "type": "Unleaded",
            "__v": 0,
            "value": 1325
        },
        {
            "_id": "5e82e85027fa1c4e1d74f5a0",
            "date": "2020-03-31T22:00:00.000Z",
            "location": "Coast",
            "octane": "95",
            "type": "Unleaded",
            "__v": 0,
            "value": 1326
        },
        {
            "_id": "5e82e85027fa1c4e1d74f5a2",
            "date": "2020-03-31T22:00:00.000Z",
            "location": "Coast",
            "octane": "95",
            "type": "LRP",
            "__v": 0,
            "value": 1325
        },
        {
            "_id": "5ead69c827fa1c4e1de34d4a",
            "date": "2020-05-05T22:00:00.000Z",
            "location": "Reef",
            "octane": "95",
            "type": "LRP",
            "__v": 0,
            "value": 1202
        },
        {
            "_id": "5ead69c827fa1c4e1de34d4c",
            "date": "2020-05-05T22:00:00.000Z",
            "location": "Reef",
            "octane": "93",
            "type": "Unleaded",
            "__v": 0,
            "value": 1202
        },
        {
            "_id": "5ead69c827fa1c4e1de34d4e",
            "date": "2020-05-05T22:00:00.000Z",
            "location": "Reef",
            "octane": "95",
            "type": "Unleaded",
            "__v": 0,
            "value": 1222
        },
        {
            "_id": "5ead69c827fa1c4e1de34d50",
            "date": "2020-05-05T22:00:00.000Z",
            "location": "Coast",
            "octane": "93",
            "type": "Unleaded",
            "__v": 0,
            "value": 1151
        },
        {
            "_id": "5ead69c827fa1c4e1de34d52",
            "date": "2020-05-05T22:00:00.000Z",
            "location": "Coast",
            "octane": "95",
            "type": "Unleaded",
            "__v": 0,
            "value": 1152
        },
        {
            "_id": "5ead69c827fa1c4e1de34d54",
            "date": "2020-05-05T22:00:00.000Z",
            "location": "Coast",
            "octane": "95",
            "type": "LRP",
            "__v": 0,
            "value": 1151
        },
        {
            "_id": "5ed6321a27fa1c4e1d8db643",
            "date": "2020-06-02T22:00:00.000Z",
            "location": "Reef",
            "octane": "95",
            "type": "LRP",
            "__v": 0,
            "value": 1320
        },
        {
            "_id": "5ed6321a27fa1c4e1d8db645",
            "date": "2020-06-02T22:00:00.000Z",
            "location": "Reef",
            "octane": "93",
            "type": "Unleaded",
            "__v": 0,
            "value": 1320
        },
        {
            "_id": "5ed6321a27fa1c4e1d8db647",
            "date": "2020-06-02T22:00:00.000Z",
            "location": "Reef",
            "octane": "95",
            "type": "Unleaded",
            "__v": 0,
            "value": 1340
        },
        {
            "_id": "5ed6327127fa1c4e1d8dcafd",
            "date": "2020-06-02T22:00:00.000Z",
            "location": "Coast",
            "octane": "93",
            "type": "Unleaded",
            "__v": 0,
            "value": 1269
        },
        {
            "_id": "5ed6327127fa1c4e1d8dcaff",
            "date": "2020-06-02T22:00:00.000Z",
            "location": "Coast",
            "octane": "95",
            "type": "Unleaded",
            "__v": 0,
            "value": 1270
        },
        {
            "_id": "5ed6327127fa1c4e1d8dcb01",
            "date": "2020-06-02T22:00:00.000Z",
            "location": "Coast",
            "octane": "95",
            "type": "LRP",
            "__v": 0,
            "value": 1269
        },
        {
            "_id": "5efb1ce327fa1c4e1daa87a8",
            "date": "2020-06-30T22:00:00.000Z",
            "location": "Reef",
            "octane": "93",
            "type": "Unleaded",
            "__v": 0,
            "value": 1483
        },
        {
            "_id": "5efb1d1327fa1c4e1daa9431",
            "date": "2020-06-30T22:00:00.000Z",
            "location": "Reef",
            "octane": "95",
            "type": "Unleaded",
            "__v": 0,
            "value": 1512
        },
        {
            "_id": "5efb23e327fa1c4e1dacf426",
            "date": "2020-06-30T22:00:00.000Z",
            "location": "Reef",
            "octane": "95",
            "type": "LRP",
            "__v": 0,
            "value": 1483
        },
        {
            "_id": "5efb240b27fa1c4e1dacfdcb",
            "date": "2020-06-30T22:00:00.000Z",
            "location": "Coast",
            "octane": "93",
            "type": "Unleaded",
            "__v": 0,
            "value": 1432
        },
        {
            "_id": "5efb241627fa1c4e1dad014d",
            "date": "2020-06-30T22:00:00.000Z",
            "location": "Coast",
            "octane": "95",
            "type": "LRP",
            "__v": 0,
            "value": 1432
        },
        {
            "_id": "5efb243627fa1c4e1dad0894",
            "date": "2020-06-30T22:00:00.000Z",
            "location": "Coast",
            "octane": "95",
            "type": "Unleaded",
            "__v": 0,
            "value": 1442
        },
        {
            "_id": "5f29276f27fa1c4e1d5e1866",
            "date": "2020-08-04T22:00:00.000Z",
            "location": "Reef",
            "octane": "95",
            "type": "LRP",
            "__v": 0,
            "value": 1488
        },
        {
            "_id": "5f29276f27fa1c4e1d5e1868",
            "date": "2020-08-04T22:00:00.000Z",
            "location": "Reef",
            "octane": "93",
            "type": "Unleaded",
            "__v": 0,
            "value": 1488
        },
        {
            "_id": "5f29276f27fa1c4e1d5e186a",
            "date": "2020-08-04T22:00:00.000Z",
            "location": "Reef",
            "octane": "95",
            "type": "Unleaded",
            "__v": 0,
            "value": 1517
        },
        {
            "_id": "5f29276f27fa1c4e1d5e186c",
            "date": "2020-08-04T22:00:00.000Z",
            "location": "Coast",
            "octane": "93",
            "type": "Unleaded",
            "__v": 0,
            "value": 1437
        },
        {
            "_id": "5f29276f27fa1c4e1d5e186e",
            "date": "2020-08-04T22:00:00.000Z",
            "location": "Coast",
            "octane": "95",
            "type": "Unleaded",
            "__v": 0,
            "value": 1447
        },
        {
            "_id": "5f29276f27fa1c4e1d5e1870",
            "date": "2020-08-04T22:00:00.000Z",
            "location": "Coast",
            "octane": "95",
            "type": "LRP",
            "__v": 0,
            "value": 1437
        },
        {
            "_id": "5f4e23fa27fa1c4e1d9a917a",
            "date": "2020-09-01T22:00:00.000Z",
            "location": "Reef",
            "octane": "95",
            "type": "LRP",
            "__v": 0,
            "value": 1489
        },
        {
            "_id": "5f4e23fa27fa1c4e1d9a917c",
            "date": "2020-09-01T22:00:00.000Z",
            "location": "Reef",
            "octane": "93",
            "type": "Unleaded",
            "__v": 0,
            "value": 1489
        },
        {
            "_id": "5f4e242627fa1c4e1d9ac168",
            "date": "2020-09-01T22:00:00.000Z",
            "location": "Reef",
            "octane": "95",
            "type": "Unleaded",
            "__v": 0,
            "value": 1518
        },
        {
            "_id": "5f4e242627fa1c4e1d9ac16a",
            "date": "2020-09-01T22:00:00.000Z",
            "location": "Coast",
            "octane": "93",
            "type": "Unleaded",
            "__v": 0,
            "value": 1438
        },
        {
            "_id": "5f4e242627fa1c4e1d9ac16c",
            "date": "2020-09-01T22:00:00.000Z",
            "location": "Coast",
            "octane": "95",
            "type": "LRP",
            "__v": 0,
            "value": 1438
        },
        {
            "_id": "5f4e244127fa1c4e1d9ad849",
            "date": "2020-09-01T22:00:00.000Z",
            "location": "Coast",
            "octane": "95",
            "type": "Unleaded",
            "__v": 0,
            "value": 1448
        },
        {
            "_id": "5f7c9f7d27fa1c4e1d33d819",
            "date": "2020-10-06T22:00:00.000Z",
            "location": "Reef",
            "octane": "95",
            "type": "LRP",
            "__v": 0,
            "value": 1466
        },
        {
            "_id": "5f7c9f7d27fa1c4e1d33d81b",
            "date": "2020-10-06T22:00:00.000Z",
            "location": "Reef",
            "octane": "93",
            "type": "Unleaded",
            "__v": 0,
            "value": 1466
        },
        {
            "_id": "5f7c9f7d27fa1c4e1d33d81d",
            "date": "2020-10-06T22:00:00.000Z",
            "location": "Reef",
            "octane": "95",
            "type": "Unleaded",
            "__v": 0,
            "value": 1486
        },
        {
            "_id": "5f7c9f7d27fa1c4e1d33d81f",
            "date": "2020-10-06T22:00:00.000Z",
            "location": "Coast",
            "octane": "93",
            "type": "Unleaded",
            "__v": 0,
            "value": 1415
        },
        {
            "_id": "5f7c9f7d27fa1c4e1d33d821",
            "date": "2020-10-06T22:00:00.000Z",
            "location": "Coast",
            "octane": "95",
            "type": "Unleaded",
            "__v": 0,
            "value": 1416
        },
        {
            "_id": "5f7c9f7d27fa1c4e1d33d823",
            "date": "2020-10-06T22:00:00.000Z",
            "location": "Coast",
            "octane": "95",
            "type": "LRP",
            "__v": 0,
            "value": 1415
        },
        {
            "_id": "5fa101716ea971011ae6ef56",
            "date": "2020-11-03T22:00:00.000Z",
            "location": "Reef",
            "octane": "95",
            "type": "LRP",
            "__v": 0,
            "value": 1439
        },
        {
            "_id": "5fa101716ea971011ae6ef58",
            "date": "2020-11-03T22:00:00.000Z",
            "location": "Reef",
            "octane": "93",
            "type": "Unleaded",
            "__v": 0,
            "value": 1439
        },
        {
            "_id": "5fa101716ea971011ae6ef5b",
            "date": "2020-11-03T22:00:00.000Z",
            "location": "Reef",
            "octane": "95",
            "type": "Unleaded",
            "__v": 0,
            "value": 1459
        },
        {
            "_id": "5fa101716ea971011ae6ef5d",
            "date": "2020-11-03T22:00:00.000Z",
            "location": "Coast",
            "octane": "93",
            "type": "Unleaded",
            "__v": 0,
            "value": 1388
        },
        {
            "_id": "5fa101716ea971011ae6ef5f",
            "date": "2020-11-03T22:00:00.000Z",
            "location": "Coast",
            "octane": "95",
            "type": "Unleaded",
            "__v": 0,
            "value": 1389
        },
        {
            "_id": "5fa101716ea971011ae6ef61",
            "date": "2020-11-03T22:00:00.000Z",
            "location": "Coast",
            "octane": "95",
            "type": "LRP",
            "__v": 0,
            "value": 1388
        },
        {
            "_id": "5fc4972e6ea971011a85ea85",
            "date": "2020-12-01T22:00:00.000Z",
            "location": "Reef",
            "octane": "95",
            "type": "LRP",
            "__v": 0,
            "value": 1426
        },
        {
            "_id": "5fc4972e6ea971011a85ea87",
            "date": "2020-12-01T22:00:00.000Z",
            "location": "Reef",
            "octane": "93",
            "type": "Unleaded",
            "__v": 0,
            "value": 1426
        },
        {
            "_id": "5fc4972e6ea971011a85ea89",
            "date": "2020-12-01T22:00:00.000Z",
            "location": "Reef",
            "octane": "95",
            "type": "Unleaded",
            "__v": 0,
            "value": 1446
        },
        {
            "_id": "5fc4972e6ea971011a85ea8b",
            "date": "2020-12-01T22:00:00.000Z",
            "location": "Coast",
            "octane": "93",
            "type": "Unleaded",
            "__v": 0,
            "value": 1375
        },
        {
            "_id": "5fc4972e6ea971011a85ea8d",
            "date": "2020-12-01T22:00:00.000Z",
            "location": "Coast",
            "octane": "95",
            "type": "Unleaded",
            "__v": 0,
            "value": 1376
        },
        {
            "_id": "5fc4972e6ea971011a85ea8f",
            "date": "2020-12-01T22:00:00.000Z",
            "location": "Coast",
            "octane": "95",
            "type": "LRP",
            "__v": 0,
            "value": 1375
        }
    ],
    "diesel": [
        {
            "_id": "5e392ce527fa1c4e1df31c1c",
            "date": "2020-02-04T22:00:00.000Z",
            "location": "Reef",
            "percentage": "0.05",
            "__v": 0,
            "value": 1462,
            "ppm": "50",
            "sulfates": "0.005",
            "id": "5e392ce527fa1c4e1df31c1c"
        },
        {
            "_id": "5e392ce527fa1c4e1df31c1e",
            "date": "2020-02-04T22:00:00.000Z",
            "location": "Reef",
            "percentage": "0.01",
            "__v": 0,
            "value": 1457,
            "ppm": "500",
            "sulfates": "0.05",
            "id": "5e392ce527fa1c4e1df31c1e"
        },
        {
            "_id": "5e392d1d27fa1c4e1df33f52",
            "date": "2020-02-04T22:00:00.000Z",
            "location": "Coast",
            "percentage": "0.05",
            "__v": 0,
            "value": 1408,
            "ppm": "50",
            "sulfates": "0.005",
            "id": "5e392d1d27fa1c4e1df33f52"
        },
        {
            "_id": "5e392d1d27fa1c4e1df33f54",
            "date": "2020-02-04T22:00:00.000Z",
            "location": "Coast",
            "percentage": "0.01",
            "__v": 0,
            "value": 1403,
            "ppm": "500",
            "sulfates": "0.05",
            "id": "5e392d1d27fa1c4e1df33f54"
        },
        {
            "_id": "5e5e222a27fa1c4e1d83489d",
            "date": "2020-03-03T22:00:00.000Z",
            "location": "Reef",
            "percentage": "0.05",
            "__v": 0,
            "value": 1408,
            "ppm": "50",
            "sulfates": "0.005",
            "id": "5e5e222a27fa1c4e1d83489d"
        },
        {
            "_id": "5e5e222a27fa1c4e1d83489f",
            "date": "2020-03-03T22:00:00.000Z",
            "location": "Reef",
            "percentage": "0.01",
            "__v": 0,
            "value": 1403,
            "ppm": "500",
            "sulfates": "0.05",
            "id": "5e5e222a27fa1c4e1d83489f"
        },
        {
            "_id": "5e5e226e27fa1c4e1d8383c2",
            "date": "2020-03-03T22:00:00.000Z",
            "location": "Coast",
            "percentage": "0.05",
            "__v": 0,
            "value": 1354,
            "ppm": "50",
            "sulfates": "0.005",
            "id": "5e5e226e27fa1c4e1d8383c2"
        },
        {
            "_id": "5e5e226e27fa1c4e1d8383c4",
            "date": "2020-03-03T22:00:00.000Z",
            "location": "Coast",
            "percentage": "0.01",
            "__v": 0,
            "value": 1349,
            "ppm": "500",
            "sulfates": "0.05",
            "id": "5e5e226e27fa1c4e1d8383c4"
        },
        {
            "_id": "5e82e7e627fa1c4e1d74c6ef",
            "date": "2020-03-31T22:00:00.000Z",
            "location": "Reef",
            "percentage": "0.05",
            "__v": 0,
            "value": 1275,
            "ppm": "50",
            "sulfates": "0.005",
            "id": "5e82e7e627fa1c4e1d74c6ef"
        },
        {
            "_id": "5e82e7e627fa1c4e1d74c6f1",
            "date": "2020-03-31T22:00:00.000Z",
            "location": "Reef",
            "percentage": "0.01",
            "__v": 0,
            "value": 1269,
            "ppm": "500",
            "sulfates": "0.05",
            "id": "5e82e7e627fa1c4e1d74c6f1"
        },
        {
            "_id": "5e82e80d27fa1c4e1d74d0d2",
            "date": "2020-03-31T22:00:00.000Z",
            "location": "Coast",
            "percentage": "0.05",
            "__v": 0,
            "value": 1215,
            "ppm": "50",
            "sulfates": "0.005",
            "id": "5e82e80d27fa1c4e1d74d0d2"
        },
        {
            "_id": "5e82e80d27fa1c4e1d74d0d4",
            "date": "2020-03-31T22:00:00.000Z",
            "location": "Coast",
            "percentage": "0.01",
            "__v": 0,
            "value": 1209,
            "ppm": "500",
            "sulfates": "0.05",
            "id": "5e82e80d27fa1c4e1d74d0d4"
        },
        {
            "_id": "5ead69c827fa1c4e1de34d48",
            "date": "2020-05-05T22:00:00.000Z",
            "location": "Reef",
            "percentage": "0.01",
            "__v": 0,
            "value": 1108,
            "ppm": "500",
            "sulfates": "0.05",
            "id": "5ead69c827fa1c4e1de34d48"
        },
        {
            "_id": "5ead69f527fa1c4e1de35b3a",
            "date": "2020-05-05T22:00:00.000Z",
            "location": "Reef",
            "percentage": "0.05",
            "__v": 0,
            "value": 1119,
            "ppm": "50",
            "sulfates": "0.005",
            "id": "5ead69f527fa1c4e1de35b3a"
        },
        {
            "_id": "5ead6a1827fa1c4e1de365a4",
            "date": "2020-05-05T22:00:00.000Z",
            "location": "Coast",
            "percentage": "0.05",
            "__v": 0,
            "value": 1059,
            "ppm": "50",
            "sulfates": "0.005",
            "id": "5ead6a1827fa1c4e1de365a4"
        },
        {
            "_id": "5ead6a1827fa1c4e1de365a6",
            "date": "2020-05-05T22:00:00.000Z",
            "location": "Coast",
            "percentage": "0.01",
            "__v": 0,
            "value": 1048,
            "ppm": "500",
            "sulfates": "0.05",
            "id": "5ead6a1827fa1c4e1de365a6"
        },
        {
            "_id": "5ed632b227fa1c4e1d8ddb80",
            "date": "2020-06-02T22:00:00.000Z",
            "location": "Reef",
            "percentage": "0.05",
            "__v": 0,
            "value": 1140,
            "ppm": "50",
            "sulfates": "0.005",
            "id": "5ed632b227fa1c4e1d8ddb80"
        },
        {
            "_id": "5ed632b227fa1c4e1d8ddb83",
            "date": "2020-06-02T22:00:00.000Z",
            "location": "Reef",
            "percentage": "0.01",
            "__v": 0,
            "value": 1130,
            "ppm": "500",
            "sulfates": "0.05",
            "id": "5ed632b227fa1c4e1d8ddb83"
        },
        {
            "_id": "5ed632d927fa1c4e1d8de61a",
            "date": "2020-06-02T22:00:00.000Z",
            "location": "Coast",
            "percentage": "0.05",
            "__v": 0,
            "value": 1080,
            "ppm": "50",
            "sulfates": "0.005",
            "id": "5ed632d927fa1c4e1d8de61a"
        },
        {
            "_id": "5ed632d927fa1c4e1d8de61c",
            "date": "2020-06-02T22:00:00.000Z",
            "location": "Coast",
            "percentage": "0.01",
            "__v": 0,
            "value": 1070,
            "ppm": "500",
            "sulfates": "0.05",
            "id": "5ed632d927fa1c4e1d8de61c"
        },
        {
            "_id": "5efb24b127fa1c4e1dad3b86",
            "date": "2020-06-30T22:00:00.000Z",
            "location": "Reef",
            "percentage": "0.05",
            "__v": 0,
            "value": 1308,
            "ppm": "50",
            "sulfates": "0.005",
            "id": "5efb24b127fa1c4e1dad3b86"
        },
        {
            "_id": "5efb24f527fa1c4e1dad5dbf",
            "date": "2020-06-30T22:00:00.000Z",
            "location": "Coast",
            "percentage": "0.05",
            "__v": 0,
            "value": 1249,
            "ppm": "50",
            "sulfates": "0.005",
            "id": "5efb24f527fa1c4e1dad5dbf"
        },
        {
            "_id": "5efb252a27fa1c4e1dad6b2b",
            "date": "2020-06-30T22:00:00.000Z",
            "location": "Reef",
            "percentage": "0.01",
            "__v": 0,
            "value": 1304,
            "ppm": "500",
            "sulfates": "0.05",
            "id": "5efb252a27fa1c4e1dad6b2b"
        },
        {
            "_id": "5efb252a27fa1c4e1dad6b2e",
            "date": "2020-06-30T22:00:00.000Z",
            "location": "Coast",
            "percentage": "0.01",
            "__v": 0,
            "value": 1243,
            "ppm": "500",
            "sulfates": "0.05",
            "id": "5efb252a27fa1c4e1dad6b2e"
        },
        {
            "_id": "5f2927ae27fa1c4e1d5e4ee4",
            "date": "2020-08-04T22:00:00.000Z",
            "location": "Reef",
            "percentage": "0.05",
            "__v": 0,
            "value": 1353,
            "ppm": "50",
            "sulfates": "0.005",
            "id": "5f2927ae27fa1c4e1d5e4ee4"
        },
        {
            "_id": "5f2927be27fa1c4e1d5e5b0a",
            "date": "2020-08-04T22:00:00.000Z",
            "location": "Reef",
            "percentage": "0.01",
            "__v": 0,
            "value": 1349,
            "ppm": "500",
            "sulfates": "0.05",
            "id": "5f2927be27fa1c4e1d5e5b0a"
        },
        {
            "_id": "5f2927d527fa1c4e1d5e6abb",
            "date": "2020-08-04T22:00:00.000Z",
            "location": "Coast",
            "percentage": "0.01",
            "__v": 0,
            "value": 1288,
            "ppm": "500",
            "sulfates": "0.05",
            "id": "5f2927d527fa1c4e1d5e6abb"
        },
        {
            "_id": "5f2927ed27fa1c4e1d5e7e01",
            "date": "2020-08-04T22:00:00.000Z",
            "location": "Coast",
            "percentage": "0.05",
            "__v": 0,
            "value": 1294,
            "ppm": "50",
            "sulfates": "0.005",
            "id": "5f2927ed27fa1c4e1d5e7e01"
        },
        {
            "_id": "5f4e24dc27fa1c4e1d9b44de",
            "date": "2020-09-01T22:00:00.000Z",
            "location": "Reef",
            "percentage": "0.01",
            "__v": 0,
            "value": 1328,
            "ppm": "500",
            "sulfates": "0.05",
            "id": "5f4e24dc27fa1c4e1d9b44de"
        },
        {
            "_id": "5f4e24f827fa1c4e1d9b56d3",
            "date": "2020-09-01T22:00:00.000Z",
            "location": "Reef",
            "percentage": "0.05",
            "__v": 0,
            "value": 1332,
            "ppm": "50",
            "sulfates": "0.005",
            "id": "5f4e24f827fa1c4e1d9b56d3"
        },
        {
            "_id": "5f4e271427fa1c4e1d9ccc9d",
            "date": "2020-09-01T22:00:00.000Z",
            "location": "Coast",
            "percentage": "0.05",
            "__v": 0,
            "value": 1273,
            "ppm": "50",
            "sulfates": "0.005",
            "id": "5f4e271427fa1c4e1d9ccc9d"
        },
        {
            "_id": "5f4e272727fa1c4e1d9cdafe",
            "date": "2020-09-01T22:00:00.000Z",
            "location": "Coast",
            "percentage": "0.01",
            "__v": 0,
            "value": 1267,
            "ppm": "500",
            "sulfates": "0.05",
            "id": "5f4e272727fa1c4e1d9cdafe"
        },
        {
            "_id": "5f7c9fdd27fa1c4e1d342e83",
            "date": "2020-10-06T22:00:00.000Z",
            "location": "Reef",
            "percentage": "0.05",
            "__v": 0,
            "value": 1239,
            "ppm": "50",
            "sulfates": "0.005",
            "id": "5f7c9fdd27fa1c4e1d342e83"
        },
        {
            "_id": "5f7c9fdd27fa1c4e1d342e85",
            "date": "2020-10-06T22:00:00.000Z",
            "location": "Reef",
            "percentage": "0.01",
            "__v": 0,
            "value": 1238,
            "ppm": "500",
            "sulfates": "0.05",
            "id": "5f7c9fdd27fa1c4e1d342e85"
        },
        {
            "_id": "5f7c9fdd27fa1c4e1d342e87",
            "date": "2020-10-06T22:00:00.000Z",
            "location": "Coast",
            "percentage": "0.05",
            "__v": 0,
            "value": 1180,
            "ppm": "50",
            "sulfates": "0.005",
            "id": "5f7c9fdd27fa1c4e1d342e87"
        },
        {
            "_id": "5f7c9fdd27fa1c4e1d342e89",
            "date": "2020-10-06T22:00:00.000Z",
            "location": "Coast",
            "percentage": "0.01",
            "__v": 0,
            "value": 1177,
            "ppm": "500",
            "sulfates": "0.05",
            "id": "5f7c9fdd27fa1c4e1d342e89"
        },
        {
            "_id": "5fa101c66ea971011ae717bc",
            "date": "2020-11-03T22:00:00.000Z",
            "location": "Reef",
            "percentage": "0.01",
            "__v": 0,
            "value": 1226,
            "ppm": "500",
            "sulfates": "0.05",
            "id": "5fa101c66ea971011ae717bc"
        },
        {
            "_id": "5fa101de6ea971011ae72565",
            "date": "2020-11-03T22:00:00.000Z",
            "location": "Reef",
            "percentage": "0.05",
            "__v": 0,
            "value": 1228,
            "ppm": "50",
            "sulfates": "0.005",
            "id": "5fa101de6ea971011ae72565"
        },
        {
            "_id": "5fa1020e6ea971011ae73deb",
            "date": "2020-11-03T22:00:00.000Z",
            "location": "Coast",
            "percentage": "0.01",
            "__v": 0,
            "value": 1165,
            "ppm": "500",
            "sulfates": "0.05",
            "id": "5fa1020e6ea971011ae73deb"
        },
        {
            "_id": "5fa102216ea971011ae746ad",
            "date": "2020-11-03T22:00:00.000Z",
            "location": "Coast",
            "percentage": "0.05",
            "__v": 0,
            "value": 1169,
            "ppm": "50",
            "sulfates": "0.005",
            "id": "5fa102216ea971011ae746ad"
        },
        {
            "_id": "5fc4979a6ea971011a861ce5",
            "date": "2020-12-01T22:00:00.000Z",
            "location": "Reef",
            "percentage": "0.01",
            "__v": 0,
            "value": 1245,
            "ppm": "500",
            "sulfates": "0.05",
            "id": "5fc4979a6ea971011a861ce5"
        },
        {
            "_id": "5fc497c06ea971011a862da7",
            "date": "2020-12-01T22:00:00.000Z",
            "location": "Reef",
            "percentage": "0.05",
            "__v": 0,
            "value": 1248,
            "ppm": "50",
            "sulfates": "0.005",
            "id": "5fc497c06ea971011a862da7"
        },
        {
            "_id": "5fc4982b6ea971011a865aa1",
            "date": "2020-12-01T22:00:00.000Z",
            "location": "Coast",
            "percentage": "0.01",
            "__v": 0,
            "value": 1185,
            "ppm": "500",
            "sulfates": "0.05",
            "id": "5fc4982b6ea971011a865aa1"
        },
        {
            "_id": "5fc498456ea971011a86664e",
            "date": "2020-12-01T22:00:00.000Z",
            "location": "Coast",
            "percentage": "0.05",
            "__v": 0,
            "value": 1189,
            "ppm": "50",
            "sulfates": "0.005",
            "id": "5fc498456ea971011a86664e"
        }
    ]
}
